vivado-p/Test/Test.sim/sim_1/behav/xsim/rv_pl_fpga_sim.vcd
$date
   Thu Feb 19 18:13:59 2026
$end
$version
  2021.2
$end
$timescale
  1ps
$end
$scope module tb_rv_pl_diagnostic $end
$var reg 1 ! clk $end
$var reg 1 " rst_n $end
$var wire 32 # inst_addr [31:0] $end
$var wire 32 $ data_addr [31:0] $end
$var wire 32 % data_wdata [31:0] $end
$var reg 32 & inst_rdata [31:0] $end
$var reg 32 ' data_rdata [31:0] $end
$var wire 1 ( data_we $end
$var wire 1 ) done $end
$var integer 32 * i [31:0] $end
$scope module dut $end
$var wire 1 + clk $end
$var wire 1 , rst_n $end
$var wire 32 # inst_addr [31:0] $end
$var wire 32 - inst_rdata [31:0] $end
$var wire 32 $ data_addr [31:0] $end
$var wire 32 % data_wdata [31:0] $end
$var wire 32 . data_rdata [31:0] $end
$var wire 1 ( data_we $end
$var reg 1 / done $end
$var wire 32 0 F_pc [31:0] $end
$var wire 32 1 F_instr [31:0] $end
$var wire 32 2 D_instr [31:0] $end
$var wire 5 3 D_rf_a1 [4:0] $end
$var wire 5 4 D_rf_a2 [4:0] $end
$var wire 3 5 D_sel_ext [2:0] $end
$var wire 5 6 E_rf_a1 [4:0] $end
$var wire 5 7 E_rf_a2 [4:0] $end
$var wire 5 8 E_rf_a3 [4:0] $end
$var wire 4 9 E_alu_control [3:0] $end
$var wire 1 : E_sel_alu_src_b $end
$var wire 2 ; E_sel_result [1:0] $end
$var wire 1 < E_pcsrc $end
$var wire 1 = E_we_rf $end
$var wire 1 > ZeroE $end
$var wire 2 ? E_fd_A [1:0] $end
$var wire 2 @ E_fd_B [1:0] $end
$var wire 32 A M_alu_o [31:0] $end
$var wire 32 B M_rf_wd [31:0] $end
$var wire 32 C M_dm_rd [31:0] $end
$var wire 5 D M_rf_a3 [4:0] $end
$var wire 1 E M_we_rf $end
$var wire 1 F M_we_dm $end
$var wire 5 G W_rf_a3 [4:0] $end
$var wire 2 H W_sel_result [1:0] $end
$var wire 1 I W_we_rf $end
$var wire 32 J D_rf_rd1 [31:0] $end
$var wire 32 K D_rf_rd2 [31:0] $end
$var wire 32 L W_result [31:0] $end
$var wire 1 M F_stall $end
$var wire 1 N D_flush $end
$var wire 1 O D_stall $end
$var wire 1 P E_flush $end
$scope module RF $end
$var wire 1 Q clk $end
$var wire 1 , rst_n $end
$var wire 1 I WE $end
$var wire 5 3 A1 [4:0] $end
$var wire 5 4 A2 [4:0] $end
$var wire 5 G A3 [4:0] $end
$var wire 32 L WD [31:0] $end
$var wire 32 J RD1 [31:0] $end
$var wire 32 K RD2 [31:0] $end
$var integer 32 R i [31:0] $end
$upscope $end
$scope module datapath_inst $end
$var wire 1 + clk $end
$var wire 1 , rst_n $end
$var wire 32 0 F_pc [31:0] $end
$var wire 32 1 F_instr [31:0] $end
$var wire 32 2 D_instr [31:0] $end
$var wire 1 < E_pcsrc $end
$var wire 32 A M_alu_o [31:0] $end
$var wire 32 B M_rf_wd [31:0] $end
$var wire 32 C M_dm_rd [31:0] $end
$var wire 1 I W_we_rf $end
$var wire 2 H W_sel_result [1:0] $end
$var wire 1 : E_sel_alu_src_b $end
$var wire 3 5 D_sel_ext [2:0] $end
$var wire 4 9 E_alu_control [3:0] $end
$var wire 1 > ZeroE $end
$var wire 1 M F_stall $end
$var wire 1 N D_flush $end
$var wire 1 O D_stall $end
$var wire 1 P E_flush $end
$var wire 2 ? E_fd_A [1:0] $end
$var wire 2 @ E_fd_B [1:0] $end
$var wire 5 3 D_rf_a1 [4:0] $end
$var wire 5 4 D_rf_a2 [4:0] $end
$var wire 5 6 E_rf_a1 [4:0] $end
$var wire 5 7 E_rf_a2 [4:0] $end
$var wire 5 8 E_rf_a3 [4:0] $end
$var wire 5 D M_rf_a3 [4:0] $end
$var wire 5 G W_rf_a3 [4:0] $end
$var wire 32 J D_rf_rd1 [31:0] $end
$var wire 32 K D_rf_rd2 [31:0] $end
$var wire 32 L W_result [31:0] $end
$var wire 32 S F_PC_P4 [31:0] $end
$var wire 32 T E_target_PC [31:0] $end
$var wire 32 U F_pc_next [31:0] $end
$var wire 32 V D_pc [31:0] $end
$var wire 32 W D_PC_P4 [31:0] $end
$var wire 32 X D_imm_ext [31:0] $end
$var wire 32 Y E_rf_rd1 [31:0] $end
$var wire 32 Z E_rf_rd2 [31:0] $end
$var wire 32 [ E_pc [31:0] $end
$var wire 32 \ E_imm_ext [31:0] $end
$var wire 32 ] E_PC_P4 [31:0] $end
$var wire 32 ^ E_alu_src_a [31:0] $end
$var wire 32 _ E_rf_wd_fwd [31:0] $end
$var wire 32 ` E_alu_src_b [31:0] $end
$var wire 32 a E_alu_result [31:0] $end
$var wire 32 b M_PC_P4 [31:0] $end
$var wire 32 c W_alu_o [31:0] $end
$var wire 32 d W_dm_rd [31:0] $end
$var wire 32 e W_PC_P4 [31:0] $end
$scope module pcfmux $end
$var wire 32 S d0 [31:0] $end
$var wire 32 T d1 [31:0] $end
$var wire 1 < s $end
$var wire 32 U y [31:0] $end
$upscope $end
$scope module pcfflopen $end
$var wire 1 + clk $end
$var wire 1 , rst_n $end
$var wire 1 f en $end
$var wire 32 U d [31:0] $end
$var reg 32 g q [31:0] $end
$upscope $end
$scope module InstrDflopenclr $end
$var wire 1 + clk $end
$var wire 1 , rst_n $end
$var wire 1 N clr $end
$var wire 1 h en $end
$var wire 32 1 d [31:0] $end
$var reg 32 i q [31:0] $end
$upscope $end
$scope module PCDflopenclr $end
$var wire 1 + clk $end
$var wire 1 , rst_n $end
$var wire 1 N clr $end
$var wire 1 j en $end
$var wire 32 0 d [31:0] $end
$var reg 32 k q [31:0] $end
$upscope $end
$scope module PCPlus4Dflopenclr $end
$var wire 1 + clk $end
$var wire 1 , rst_n $end
$var wire 1 N clr $end
$var wire 1 l en $end
$var wire 32 S d [31:0] $end
$var reg 32 m q [31:0] $end
$upscope $end
$scope module ext $end
$var wire 3 5 sel_ext [2:0] $end
$var wire 32 2 Ins [31:0] $end
$var reg 32 n ImmExt [31:0] $end
$var wire 3 o funct3 [2:0] $end
$upscope $end
$scope module RD1Eflopclr $end
$var wire 1 + clk $end
$var wire 1 , rst_n $end
$var wire 1 P clr $end
$var wire 32 J d [31:0] $end
$var reg 32 p q [31:0] $end
$upscope $end
$scope module RD2Eflopclr $end
$var wire 1 + clk $end
$var wire 1 , rst_n $end
$var wire 1 P clr $end
$var wire 32 K d [31:0] $end
$var reg 32 q q [31:0] $end
$upscope $end
$scope module PCEflopclr $end
$var wire 1 + clk $end
$var wire 1 , rst_n $end
$var wire 1 P clr $end
$var wire 32 V d [31:0] $end
$var reg 32 r q [31:0] $end
$upscope $end
$scope module Rs1Eflopclr $end
$var wire 1 + clk $end
$var wire 1 , rst_n $end
$var wire 1 P clr $end
$var wire 5 3 d [4:0] $end
$var reg 5 s q [4:0] $end
$upscope $end
$scope module Rs2Eflopclr $end
$var wire 1 + clk $end
$var wire 1 , rst_n $end
$var wire 1 P clr $end
$var wire 5 4 d [4:0] $end
$var reg 5 t q [4:0] $end
$upscope $end
$scope module RdEflopclr $end
$var wire 1 + clk $end
$var wire 1 , rst_n $end
$var wire 1 P clr $end
$var wire 5 u d [11:7] $end
$var reg 5 v q [4:0] $end
$upscope $end
$scope module ImmExtEflopclr $end
$var wire 1 + clk $end
$var wire 1 , rst_n $end
$var wire 1 P clr $end
$var wire 32 X d [31:0] $end
$var reg 32 w q [31:0] $end
$upscope $end
$scope module PCPlus4Eflopclr $end
$var wire 1 + clk $end
$var wire 1 , rst_n $end
$var wire 1 P clr $end
$var wire 32 W d [31:0] $end
$var reg 32 x q [31:0] $end
$upscope $end
$scope module SrcAEMux $end
$var wire 32 Y d0 [31:0] $end
$var wire 32 L d1 [31:0] $end
$var wire 32 A d2 [31:0] $end
$var wire 2 ? s [1:0] $end
$var wire 32 ^ y [31:0] $end
$upscope $end
$scope module WDEMux $end
$var wire 32 Z d0 [31:0] $end
$var wire 32 L d1 [31:0] $end
$var wire 32 A d2 [31:0] $end
$var wire 2 @ s [1:0] $end
$var wire 32 _ y [31:0] $end
$upscope $end
$scope module SrcBEmux $end
$var wire 32 _ d0 [31:0] $end
$var wire 32 \ d1 [31:0] $end
$var wire 1 : s $end
$var wire 32 ` y [31:0] $end
$upscope $end
$scope module alu_inst $end
$var wire 32 ^ A [31:0] $end
$var wire 32 ` B [31:0] $end
$var wire 4 9 alu_control [3:0] $end
$var wire 32 a Result [31:0] $end
$var wire 1 > Zero $end
$var reg 32 y res [31:0] $end
$upscope $end
$scope module ALUReMflop $end
$var wire 1 + clk $end
$var wire 1 , rst_n $end
$var wire 32 a d [31:0] $end
$var reg 32 z q [31:0] $end
$upscope $end
$scope module WMMflop $end
$var wire 1 + clk $end
$var wire 1 , rst_n $end
$var wire 32 _ d [31:0] $end
$var reg 32 { q [31:0] $end
$upscope $end
$scope module RdMflop $end
$var wire 1 + clk $end
$var wire 1 , rst_n $end
$var wire 5 8 d [4:0] $end
$var reg 5 | q [4:0] $end
$upscope $end
$scope module PCPlus4Mflop $end
$var wire 1 + clk $end
$var wire 1 , rst_n $end
$var wire 32 ] d [31:0] $end
$var reg 32 } q [31:0] $end
$upscope $end
$scope module ALUReWBflop $end
$var wire 1 + clk $end
$var wire 1 , rst_n $end
$var wire 32 A d [31:0] $end
$var reg 32 ~ q [31:0] $end
$upscope $end
$scope module rdWflop $end
$var wire 1 + clk $end
$var wire 1 , rst_n $end
$var wire 32 C d [31:0] $end
$var reg 32 !! q [31:0] $end
$upscope $end
$scope module RdWflop $end
$var wire 1 + clk $end
$var wire 1 , rst_n $end
$var wire 5 D d [4:0] $end
$var reg 5 "! q [4:0] $end
$upscope $end
$scope module PCPlus4Wflop $end
$var wire 1 + clk $end
$var wire 1 , rst_n $end
$var wire 32 b d [31:0] $end
$var reg 32 #! q [31:0] $end
$upscope $end
$scope module ResultWMux $end
$var wire 32 c d0 [31:0] $end
$var wire 32 d d1 [31:0] $end
$var wire 32 e d2 [31:0] $end
$var wire 2 H s [1:0] $end
$var wire 32 L y [31:0] $end
$upscope $end
$upscope $end
$scope module controller_inst $end
$var wire 1 + clk $end
$var wire 1 , rst_n $end
$var wire 7 $! op [6:0] $end
$var wire 3 %! funct3 [14:12] $end
$var wire 7 &! funct7 [31:25] $end
$var wire 1 P E_flush $end
$var wire 1 > ZeroE $end
$var wire 1 E M_we_rf $end
$var wire 1 I W_we_rf $end
$var wire 1 F M_we_dm $end
$var wire 1 < E_pcsrc $end
$var wire 2 ; E_sel_result [1:0] $end
$var wire 2 H W_sel_result [1:0] $end
$var wire 4 9 E_alu_control [3:0] $end
$var wire 1 : E_sel_alu_src_b $end
$var wire 3 5 D_sel_ext [2:0] $end
$var wire 1 = E_we_rf $end
$var wire 1 '! D_we_rf $end
$var wire 1 (! D_we_dm $end
$var wire 1 )! D_jump $end
$var wire 1 *! D_branch $end
$var wire 1 +! D_sel_alu_src_b $end
$var wire 2 ,! D_sel_result [1:0] $end
$var wire 4 -! D_alu_control [3:0] $end
$var wire 2 .! ALUOp [1:0] $end
$var wire 1 /! E_we_dm $end
$var wire 1 0! E_jump $end
$var wire 1 1! E_branch $end
$var wire 2 2! E_sel_res_mid [1:0] $end
$var wire 2 3! M_sel_res_mid [1:0] $end
$scope module md $end
$var wire 7 $! Op [6:0] $end
$var reg 1 4! RegWrite $end
$var reg 3 5! ImmSrc [2:0] $end
$var reg 1 6! ALUSrc $end
$var reg 1 7! MemWrite $end
$var reg 2 8! ResultSrc [1:0] $end
$var reg 1 9! Branch $end
$var reg 2 :! ALUOp [1:0] $end
$var reg 1 ;! Jump $end
$upscope $end
$scope module alu_dec $end
$var wire 2 .! ALUOp [1:0] $end
$var wire 3 %! funct3 [14:12] $end
$var wire 1 <! funct7b5 $end
$var wire 1 =! opb5 $end
$var reg 4 >! alu_control [3:0] $end
$var wire 1 ?! r_sub $end
$upscope $end
$scope module RWE_reg $end
$var wire 1 + clk $end
$var wire 1 , rst_n $end
$var wire 1 P clr $end
$var wire 1 '! d [0:0] $end
$var reg 1 @! q [0:0] $end
$upscope $end
$scope module RSE_reg $end
$var wire 1 + clk $end
$var wire 1 , rst_n $end
$var wire 1 P clr $end
$var wire 2 ,! d [1:0] $end
$var reg 2 A! q [1:0] $end
$upscope $end
$scope module MWE_reg $end
$var wire 1 + clk $end
$var wire 1 , rst_n $end
$var wire 1 P clr $end
$var wire 1 (! d [0:0] $end
$var reg 1 B! q [0:0] $end
$upscope $end
$scope module JE_reg $end
$var wire 1 + clk $end
$var wire 1 , rst_n $end
$var wire 1 P clr $end
$var wire 1 )! d [0:0] $end
$var reg 1 C! q [0:0] $end
$upscope $end
$scope module BE_reg $end
$var wire 1 + clk $end
$var wire 1 , rst_n $end
$var wire 1 P clr $end
$var wire 1 *! d [0:0] $end
$var reg 1 D! q [0:0] $end
$upscope $end
$scope module ALUConE_reg $end
$var wire 1 + clk $end
$var wire 1 , rst_n $end
$var wire 1 P clr $end
$var wire 4 -! d [3:0] $end
$var reg 4 E! q [3:0] $end
$upscope $end
$scope module ASrcE_reg $end
$var wire 1 + clk $end
$var wire 1 , rst_n $end
$var wire 1 P clr $end
$var wire 1 +! d [0:0] $end
$var reg 1 F! q [0:0] $end
$upscope $end
$scope module RWM_reg $end
$var wire 1 + clk $end
$var wire 1 , rst_n $end
$var wire 1 = d [0:0] $end
$var reg 1 G! q [0:0] $end
$upscope $end
$scope module RSM_reg $end
$var wire 1 + clk $end
$var wire 1 , rst_n $end
$var wire 2 ; d [1:0] $end
$var reg 2 H! q [1:0] $end
$upscope $end
$scope module MWM_reg $end
$var wire 1 + clk $end
$var wire 1 , rst_n $end
$var wire 1 /! d [0:0] $end
$var reg 1 I! q [0:0] $end
$upscope $end
$scope module RWWB_reg $end
$var wire 1 + clk $end
$var wire 1 , rst_n $end
$var wire 1 E d [0:0] $end
$var reg 1 J! q [0:0] $end
$upscope $end
$scope module RSWB_reg $end
$var wire 1 + clk $end
$var wire 1 , rst_n $end
$var wire 2 3! d [1:0] $end
$var reg 2 K! q [1:0] $end
$upscope $end
$upscope $end
$scope module hazard_inst $end
$var wire 5 3 D_rf_a1 [4:0] $end
$var wire 5 4 D_rf_a2 [4:0] $end
$var wire 5 6 E_rf_a1 [4:0] $end
$var wire 5 7 E_rf_a2 [4:0] $end
$var wire 5 8 E_rf_a3 [4:0] $end
$var wire 5 D M_rf_a3 [4:0] $end
$var wire 5 G W_rf_a3 [4:0] $end
$var wire 1 < E_pcsrc $end
$var wire 1 L! E_sel_result0 $end
$var wire 1 E M_we_rf $end
$var wire 1 I W_we_rf $end
$var wire 1 M F_stall $end
$var wire 1 N D_flush $end
$var wire 1 O D_stall $end
$var wire 1 P E_flush $end
$var reg 2 M! E_fd_A [1:0] $end
$var reg 2 N! E_fd_B [1:0] $end
$var wire 1 O! lwStall $end
$upscope $end
$upscope $end
$scope task display_sorted_array $end
$upscope $end
$upscope $end
$enddefinitions $end
#0
$dumpvars
0!
b0 !!
0"
b0 "!
b0 #
b0 #!
b0 $
b0 $!
b0 %
b0 %!
b101000000000010100010011 &
b0 &!
b0 '
0'!
0(
0(!
0)
0)!
b10000000000 *
0*!
0+
0+!
0,
b0 ,!
b101000000000010100010011 -
b100 -!
b0 .
b0 .!
0/
0/!
b0 0
00!
b101000000000010100010011 1
01!
b0 2
bz 2!
b0 3
b0 3!
b0 4
04!
b0 5
b0 5!
b0 6
06!
b0 7
07!
b0 8
b0 8!
b0 9
09!
0:
b0 :!
b0 ;
0;!
0<
0<!
0=
0=!
1>
b100 >!
b0 ?
0?!
b0 @
0@!
b0 A
b0 A!
b0 B
0B!
b0 C
0C!
b0 D
0D!
0E
b0 E!
0F
0F!
b0 G
0G!
b0 H
b0 H!
0I
0I!
b0 J
0J!
b0 K
b0 K!
b0 L
0L!
0M
b0 M!
0N
b0 N!
0O
0O!
0P
1Q
bx R
b100 S
b0 T
b100 U
b0 V
b0 W
b0 X
b0 Y
b0 Z
b0 [
b0 \
b0 ]
b0 ^
b0 _
b0 `
b0 a
b0 b
b0 c
b0 d
b0 e
1f
b0 g
1h
b0 i
1j
b0 k
1l
b0 m
b0 n
b0 o
b0 p
b0 q
b0 r
b0 s
b0 t
b0 u
b0 v
b0 w
b0 x
b0 y
b0 z
b0 {
b0 |
b0 }
b0 ~
$end
#5000
1!
1+
0Q
#10000
0!
0+
1Q
#15000
1!
1+
0Q
#20000
0!
0+
1Q
#25000
1!
1+
0Q
#30000
0!
0+
1Q
#35000
1!
1+
0Q
#40000
0!
0+
1Q
#45000
1!
1+
0Q
#50000
0!
0+
1Q
#55000
1!
1+
0Q
#60000
0!
0+
1Q
#65000
1!
1+
0Q
#70000
0!
0+
1Q
#75000
1!
1+
0Q
#80000
0!
0+
1Q
#85000
1!
1+
0Q
#90000
0!
0+
1Q
#95000
1!
1+
0Q
#100000
0!
1"
0+
1,
1Q
#105000
1!
b100 #
b10011 $!
b0 %!
b110010000000000010110010011 &
b0 &!
1'!
1+
1+!
b110010000000000010110010011 -
b10 .!
b100 0
b110010000000000010110010011 1
b101000000000010100010011 2
b1010 4
14!
b0 5!
16!
07!
b0 8!
b100 9
09!
b10 :!
0;!
0<!
0=!
b100 >!
b100 E!
0O!
0Q
b1000 S
b1000 U
b100 W
b1010 X
b100 g
b101000000000010100010011 i
b100 m
b1010 n
b1010 u
b0 y
#110000
0!
0+
1Q
#115000
1!
b1000 #
b10011 $!
b0 %!
b100000000000000000010010011 &
b11 &!
1+
b100000000000000000010010011 -
b1000 0
b100000000000000000010010011 1
b110010000000000010110010011 2
b100 4
b1010 7
b1010 8
1:
0<
0<!
1=
0=!
0>
1@!
1F!
b0 M!
b0 N!
0O!
0Q
b1100 S
b1010 T
b1100 U
b100 V
b1000 W
b1100100 X
b1010 \
b100 ]
b1010 `
b1010 a
b1000 g
b110010000000000010110010011 i
b100 k
b1000 m
b1100100 n
b1010 t
b1011 u
b1010 v
b1010 w
b100 x
b1010 y
#120000
0!
0+
1Q
#125000
1!
b1100 #
b1010 $
b10011 $!
b0 %!
b101011010000000100011 &
b10 &!
b0 '
1+
b101011010000000100011 -
b1100 0
b101011010000000100011 1
b100000000000000000010010011 2
b0 4
b100 7
b1011 8
0<!
0=!
0>
b1010 A
b1010 D
1E
1G!
b0 M!
b0 N!
0O!
0Q
b10000 S
b1101000 T
b10000 U
b1000 V
b1100 W
b1000000 X
b100 [
b1100100 \
b1000 ]
b0 ^
b0 _
b1100100 `
b1100100 a
b100 b
b1100 g
b100000000000000000010010011 i
b1000 k
b1100 m
b1000000 n
b100 r
b100 t
b1 u
b1011 v
b1100100 w
b1000 x
b1100100 y
b1010 z
b1010 |
b100 }
#130000
0!
0+
1Q
#135000
1!
b1010 "!
b10000 #
b100 #!
b1100100 $
b100011 $!
b10 %!
b10001000000000000010010011 &
b0 &!
b0 '
0'!
1(!
1+
b10001000000000000010010011 -
b100 -!
b0 .!
b10000 0
b10001000000000000010010011 1
b101011010000000100011 2
b1011 3
b1 4
04!
b1 5
b1 5!
16!
b0 7
17!
b1 8
b0 8!
09!
b0 :!
0;!
0<!
1=!
0>
b100 >!
0?!
b1100100 A
b1011 D
b1010 G
1I
1J!
b1010 L
b0 M!
b0 N!
0O!
0Q
b10100 S
b1001000 T
b10100 U
b1100 V
b10000 W
b0 X
b1000 [
b1000000 \
b1100 ]
b0 ^
b0 _
b1000000 `
b1000000 a
b1000 b
b1010 c
b100 e
b10000 g
b101011010000000100011 i
b1100 k
b10000 m
b0 n
b10 o
b1000 r
b0 t
b0 u
b1 v
b1000000 w
b1100 x
b1000000 y
b1100100 z
b1011 |
b1000 }
b1010 ~
#140000
0!
0+
1Q
#145000
1!
b1011 "!
b10100 #
b1000 #!
b1000000 $
b10011 $!
b0 %!
b101011010001000100011 &
b1 &!
b0 '
1'!
0(!
1+
b101011010001000100011 -
b10 .!
1/!
b10100 0
b101011010001000100011 1
b10001000000000000010010011 2
b0 3
b10 4
14!
b0 5
b0 5!
b1011 6
16!
b1 7
07!
b0 8
b0 8!
09!
b10 :!
0;!
0<
0<!
0=
0=!
0>
b100 >!
b1 ?
0?!
b10 @
0@!
b1000000 A
1B!
b1 D
b1011 G
b1100100 L
b1 M!
b10 N!
0O!
0Q
b11000 S
b1100 T
b11000 U
b10000 V
b10100 W
b100010 X
b1100 [
b0 \
b10000 ]
b1100100 ^
b1000000 _
b0 `
b1100100 a
b1100 b
b1100100 c
b1000 e
b10100 g
b10001000000000000010010011 i
b10000 k
b10100 m
b100010 n
b0 o
b1100 r
b1011 s
b1 t
b1 u
b0 v
b0 w
b10000 x
b1100100 y
b1000000 z
b1 |
b1100 }
b1100100 ~
#150000
0!
0+
1Q
#155000
1!
b1 "!
b11000 #
b1100 #!
b1100100 $
b100011 $!
b1000000 %
b10 %!
b1100100000000000010010011 &
b0 &!
b0 '
0'!
1(
1(!
1+
b1100100000000000010010011 -
b100 -!
b0 .!
0/!
b11000 0
b1100100000000000010010011 1
b101011010001000100011 2
b1011 3
b1 4
04!
b1 5
b1 5!
b0 6
16!
b10 7
17!
b1 8
b0 8!
09!
b0 :!
0;!
0<!
1=
1=!
0>
b100 >!
b0 ?
0?!
b0 @
1@!
b1100100 A
b1000000 B
0B!
b0 D
0E
1F
b1 G
0G!
1I!
b1100100 J
b1000000 L
b0 M!
b0 N!
0O!
0Q
b11100 S
b110010 T
b11100 U
b10100 V
b11000 W
b100 X
b10000 [
b100010 \
b10100 ]
b0 ^
b0 _
b100010 `
b100010 a
b10000 b
b1000000 c
b1100 e
b11000 g
b101011010001000100011 i
b10100 k
b11000 m
b100 n
b10 o
b10000 r
b0 s
b10 t
b100 u
b1 v
b100010 w
b10100 x
b100010 y
b1100100 z
b1000000 {
b0 |
b10000 }
b1000000 ~
#160000
0!
0+
b1000000 K
1Q
#165000
1!
b0 "!
b11100 #
b10000 #!
b100010 $
b10011 $!
b0 %
b0 %!
b101011010010000100011 &
b0 &!
b0 '
1'!
0(
0(!
1+
b101011010010000100011 -
b0 .
b10 .!
1/!
b11100 0
b101011010010000100011 1
b1100100000000000010010011 2
b0 3
b11001 4
14!
b0 5
b0 5!
b1011 6
16!
b1 7
07!
b100 8
b0 8!
09!
b10 :!
0;!
0<!
0=
0=!
0>
b100 >!
0?!
b10 @
0@!
b100010 A
b0 B
1B!
b0 C
b1 D
1E
0F
b0 G
1G!
0I
0I!
b0 J
0J!
b0 K
b1100100 L
b0 M!
b10 N!
0O!
0Q
b100000 S
b11000 T
b100000 U
b11000 V
b11100 W
b11001 X
b1100100 Y
b1000000 Z
b10100 [
b100 \
b11000 ]
b1100100 ^
b100010 _
b100 `
b1101000 a
b10100 b
b1100100 c
b10000 e
b11100 g
b1100100000000000010010011 i
b11000 k
b11100 m
b11001 n
b0 o
b1100100 p
b1000000 q
b10100 r
b1011 s
b1 t
b1 u
b100 v
b100 w
b11000 x
b1101000 y
b100010 z
b0 {
b1 |
b10100 }
b1100100 ~
#170000
0!
0+
1Q
#175000
1!
b1 "!
b100000 #
b10100 #!
b1101000 $
b100011 $!
b100010 %
b10 %!
b110000000000000010010011 &
b0 &!
b0 '
0'!
1(
1(!
1+
b110000000000000010010011 -
b100 -!
b0 .!
0/!
b100000 0
b110000000000000010010011 1
b101011010010000100011 2
b1011 3
b1 4
04!
b1 5
b1 5!
b0 6
16!
b11001 7
17!
b1 8
b0 8!
09!
b0 :!
0;!
0<!
1=
1=!
0>
b100 >!
0?!
b0 @
1@!
b1101000 A
b100010 B
0B!
b100 D
0E
1F
b1 G
0G!
1I
1I!
b1100100 J
1J!
b1000000 K
b100010 L
b0 M!
b0 N!
0O!
0Q
b100100 S
b110001 T
b100100 U
b11100 V
b100000 W
b1000 X
b0 Y
b0 Z
b11000 [
b11001 \
b11100 ]
b0 ^
b0 _
b11001 `
b11001 a
b11000 b
b100010 c
b10100 e
b100000 g
b101011010010000100011 i
b11100 k
b100000 m
b1000 n
b10 o
b0 p
b0 q
b11000 r
b0 s
b11001 t
b1000 u
b1 v
b11001 w
b11100 x
b11001 y
b1101000 z
b100010 {
b100 |
b11000 }
b100010 ~
#180000
0!
0+
b100010 K
1Q
#185000
1!
b100 "!
b100100 #
b11000 #!
b11001 $
b10011 $!
b0 %
b0 %!
b101011010011000100011 &
b0 &!
b0 '
1'!
0(
0(!
1+
b101011010011000100011 -
b0 .
b10 .!
1/!
b100100 0
b101011010011000100011 1
b110000000000000010010011 2
b0 3
b1100 4
14!
b0 5
b0 5!
b1011 6
16!
b1 7
07!
b1000 8
b0 8!
09!
b10 :!
0;!
0<!
0=
0=!
0>
b100 >!
0?!
b10 @
0@!
b11001 A
b0 B
1B!
b0 C
b1 D
1E
0F
b100 G
1G!
0I
0I!
b0 J
0J!
b0 K
b1101000 L
b0 M!
b10 N!
0O!
0Q
b101000 S
b100100 T
b101000 U
b100000 V
b100100 W
b1100 X
b1100100 Y
b100010 Z
b11100 [
b1000 \
b100000 ]
b1100100 ^
b11001 _
b1000 `
b1101100 a
b11100 b
b1101000 c
b11000 e
b100100 g
b110000000000000010010011 i
b100000 k
b100100 m
b1100 n
b0 o
b1100100 p
b100010 q
b11100 r
b1011 s
b1 t
b1 u
b1000 v
b1000 w
b100000 x
b1101100 y
b11001 z
b0 {
b1 |
b11100 }
b1101000 ~
#190000
0!
0+
1Q
#195000
1!
b1 "!
b101000 #
b11100 #!
b1101100 $
b100011 $!
b11001 %
b10 %!
b1011000000000000010010011 &
b0 &!
b0 '
0'!
1(
1(!
1+
b1011000000000000010010011 -
b100 -!
b0 .!
0/!
b101000 0
b1011000000000000010010011 1
b101011010011000100011 2
b1011 3
b1 4
04!
b1 5
b1 5!
b0 6
16!
b1100 7
17!
b1 8
b0 8!
09!
b0 :!
0;!
0<!
1=
1=!
0>
b100 >!
0?!
b0 @
1@!
b1101100 A
b11001 B
0B!
b1000 D
0E
1F
b1 G
0G!
1I
1I!
b1100100 J
1J!
b100010 K
b11001 L
b0 M!
b0 N!
0O!
0Q
b101100 S
b101100 T
b101100 U
b100100 V
b101000 W
b1100 X
b0 Y
b0 Z
b100000 [
b1100 \
b100100 ]
b0 ^
b0 _
b1100 `
b1100 a
b100000 b
b11001 c
b11100 e
b101000 g
b101011010011000100011 i
b100100 k
b101000 m
b1100 n
b10 o
b0 p
b0 q
b100000 r
b0 s
b1100 t
b1100 u
b1 v
b1100 w
b100100 x
b1100 y
b1101100 z
b11001 {
b1000 |
b100000 }
b11001 ~
#200000
0!
0+
b11001 K
1Q
#205000
1!
b1000 "!
b101100 #
b100000 #!
b1100 $
b10011 $!
b0 %
b0 %!
b101011010100000100011 &
b0 &!
b0 '
1'!
0(
0(!
1+
b101011010100000100011 -
b0 .
b10 .!
1/!
b101100 0
b101011010100000100011 1
b1011000000000000010010011 2
b0 3
b10110 4
14!
b0 5
b0 5!
b1011 6
16!
b1 7
07!
b1100 8
b0 8!
09!
b10 :!
0;!
0<!
0=
0=!
0>
b100 >!
0?!
b10 @
0@!
b1100 A
b0 B
1B!
b0 C
b1 D
1E
0F
b1000 G
1G!
0I
0I!
b0 J
0J!
b0 K
b1101100 L
b0 M!
b10 N!
0O!
0Q
b110000 S
b110000 T
b110000 U
b101000 V
b101100 W
b10110 X
b1100100 Y
b11001 Z
b100100 [
b101000 ]
b1100100 ^
b1100 _
b1100 `
b1110000 a
b100100 b
b1101100 c
b100000 e
b101100 g
b1011000000000000010010011 i
b101000 k
b101100 m
b10110 n
b0 o
b1100100 p
b11001 q
b100100 r
b1011 s
b1 t
b1 u
b1100 v
b101000 x
b1110000 y
b1100 z
b0 {
b1 |
b100100 }
b1101100 ~
#210000
0!
0+
1Q
#215000
1!
b1 "!
b110000 #
b100100 #!
b1110000 $
b100011 $!
b1100 %
b10 %!
b101100000000000010010011 &
b0 &!
b0 '
0'!
1(
1(!
1+
b101100000000000010010011 -
b100 -!
b0 .!
0/!
b110000 0
b101100000000000010010011 1
b101011010100000100011 2
b1011 3
b1 4
04!
b1 5
b1 5!
b0 6
16!
b10110 7
17!
b1 8
b0 8!
09!
b0 :!
0;!
0<!
1=
1=!
0>
b100 >!
0?!
b0 @
1@!
b1110000 A
b1100 B
0B!
b1100 D
0E
1F
b1 G
0G!
1I
1I!
b1100100 J
1J!
b11001 K
b1100 L
b0 M!
b0 N!
0O!
0Q
b110100 S
b111110 T
b110100 U
b101100 V
b110000 W
b10000 X
b0 Y
b0 Z
b101000 [
b10110 \
b101100 ]
b0 ^
b0 _
b10110 `
b10110 a
b101000 b
b1100 c
b100100 e
b110000 g
b101011010100000100011 i
b101100 k
b110000 m
b10000 n
b10 o
b0 p
b0 q
b101000 r
b0 s
b10110 t
b10000 u
b1 v
b10110 w
b101100 x
b10110 y
b1110000 z
b1100 {
b1100 |
b101000 }
b1100 ~
#220000
0!
0+
b1100 K
1Q
